EESchema Schematic File Version 4
LIBS:esp_mpu_step_down_minimum-cache
EELAYER 29 0
EELAYER END
$Descr A4 11693 8268
encoding utf-8
Sheet 1 3
Title "Carrera Sensor Board "
Date "2019-10-29"
Rev "V1"
Comp "Hochschule Coburg"
Comment1 "Ersteller: Moritz Vierneusel"
Comment2 ""
Comment3 ""
Comment4 ""
$EndDescr
$Comp
L RF_Module:ESP-12E U1
U 1 1 5DA4285A
P 5630 4090
F 0 "U1" H 5350 4880 50  0000 C CNN
F 1 "ESP-12E" H 5940 4890 50  0000 C CNN
F 2 "RF_Module:ESP-12E" H 5630 4090 50  0001 C CNN
F 3 "http://wiki.ai-thinker.com/_media/esp8266/esp8266_series_modules_user_manual_v1.1.pdf" H 5280 4190 50  0001 C CNN
	1    5630 4090
	1    0    0    -1  
$EndComp
$Comp
L power:GND #PWR07
U 1 1 5DA59AC0
P 5630 4890
F 0 "#PWR07" H 5630 4640 50  0001 C CNN
F 1 "GND" H 5635 4717 50  0000 C CNN
F 2 "" H 5630 4890 50  0001 C CNN
F 3 "" H 5630 4890 50  0001 C CNN
	1    5630 4890
	1    0    0    -1  
$EndComp
Wire Wire Line
	5630 4890 5630 4790
$Comp
L power:+3.3V #PWR06
U 1 1 5DA7F716
P 5630 2950
F 0 "#PWR06" H 5630 2800 50  0001 C CNN
F 1 "+3.3V" H 5645 3123 50  0000 C CNN
F 2 "" H 5630 2950 50  0001 C CNN
F 3 "" H 5630 2950 50  0001 C CNN
	1    5630 2950
	1    0    0    -1  
$EndComp
Wire Wire Line
	5630 3290 5630 2950
$Comp
L Device:R R1
U 1 1 5DA80570
P 4800 3690
F 0 "R1" V 4710 3610 50  0000 C CNN
F 1 "10k" V 4710 3780 50  0000 C CNN
F 2 "Resistor_SMD:R_0603_1608Metric" V 4730 3690 50  0001 C CNN
F 3 "~" H 4800 3690 50  0001 C CNN
	1    4800 3690
	0    1    1    0   
$EndComp
$Comp
L Device:R R3
U 1 1 5DA81482
P 6930 4390
F 0 "R3" V 6840 4310 50  0000 C CNN
F 1 "10k" V 6840 4480 50  0000 C CNN
F 2 "Resistor_SMD:R_0603_1608Metric" V 6860 4390 50  0001 C CNN
F 3 "~" H 6930 4390 50  0001 C CNN
	1    6930 4390
	0    1    1    0   
$EndComp
Wire Wire Line
	4650 3690 4530 3690
Wire Wire Line
	5030 3690 4950 3690
$Comp
L power:GND #PWR08
U 1 1 5DA8A733
P 7200 4390
F 0 "#PWR08" H 7200 4140 50  0001 C CNN
F 1 "GND" V 7205 4262 50  0000 R CNN
F 2 "" H 7200 4390 50  0001 C CNN
F 3 "" H 7200 4390 50  0001 C CNN
	1    7200 4390
	0    -1   -1   0   
$EndComp
Wire Wire Line
	7200 4390 7080 4390
Text Label 6370 3790 0    50   ~ 0
TX
Text Label 6360 3590 0    50   ~ 0
RX
Wire Wire Line
	6360 3590 6230 3590
Wire Wire Line
	6230 3790 6370 3790
$Comp
L Device:R R2
U 1 1 5DA8CDBF
P 6380 3120
F 0 "R2" V 6290 3040 50  0000 C CNN
F 1 "10k" V 6290 3210 50  0000 C CNN
F 2 "Resistor_SMD:R_0603_1608Metric" V 6310 3120 50  0001 C CNN
F 3 "~" H 6380 3120 50  0001 C CNN
	1    6380 3120
	-1   0    0    1   
$EndComp
Wire Wire Line
	5630 2950 6380 2950
Wire Wire Line
	6380 2950 6380 2970
Connection ~ 5630 2950
Wire Wire Line
	6230 3490 6380 3490
Wire Wire Line
	6380 3490 6380 3270
Text Label 6510 3490 0    50   ~ 0
GPIO0
Wire Wire Line
	6510 3490 6380 3490
Connection ~ 6380 3490
Text Label 6370 3890 0    50   ~ 0
MPU_SDA
Text Label 6370 3990 0    50   ~ 0
MPU_SCL
Wire Wire Line
	6370 3890 6230 3890
Wire Wire Line
	6230 3990 6370 3990
$Sheet
S 8510 4010 770  300 
U 5DB0642B
F0 "Step_Down" 50
F1 "Step_Down.sch" 50
F2 "Vin" I L 8510 4090 50 
F3 "Vout_3V3" O R 9280 4090 50 
F4 "Enable" I L 8510 4200 50 
F5 "GND" B R 9280 4200 50 
$EndSheet
$Comp
L power:GND #PWR011
U 1 1 5DAF0707
P 9490 4200
F 0 "#PWR011" H 9490 3950 50  0001 C CNN
F 1 "GND" H 9495 4027 50  0000 C CNN
F 2 "" H 9490 4200 50  0001 C CNN
F 3 "" H 9490 4200 50  0001 C CNN
	1    9490 4200
	1    0    0    -1  
$EndComp
$Comp
L power:VCC #PWR09
U 1 1 5DAF1040
P 8360 4050
F 0 "#PWR09" H 8360 3900 50  0001 C CNN
F 1 "VCC" H 8377 4223 50  0000 C CNN
F 2 "" H 8360 4050 50  0001 C CNN
F 3 "" H 8360 4050 50  0001 C CNN
	1    8360 4050
	1    0    0    -1  
$EndComp
Wire Wire Line
	9490 4200 9280 4200
NoConn ~ 5030 4090
NoConn ~ 5030 4190
NoConn ~ 5030 4290
NoConn ~ 5030 4390
NoConn ~ 5030 4490
NoConn ~ 5030 4590
NoConn ~ 6230 4490
Wire Wire Line
	8510 4090 8360 4090
Wire Wire Line
	8360 4090 8360 4050
NoConn ~ 5030 3890
Text Notes 1020 780  0    50   ~ 0
Input Voltage Smoothing
Wire Wire Line
	1340 1250 1340 1340
Wire Wire Line
	1340 1150 1340 1040
$Comp
L power:+3.3V #PWR01
U 1 1 5DB1097F
P 960 6620
F 0 "#PWR01" H 960 6470 50  0001 C CNN
F 1 "+3.3V" H 975 6793 50  0000 C CNN
F 2 "" H 960 6620 50  0001 C CNN
F 3 "" H 960 6620 50  0001 C CNN
	1    960  6620
	1    0    0    -1  
$EndComp
$Comp
L power:GND #PWR02
U 1 1 5DB111F1
P 960 7460
F 0 "#PWR02" H 960 7210 50  0001 C CNN
F 1 "GND" H 965 7287 50  0000 C CNN
F 2 "" H 960 7460 50  0001 C CNN
F 3 "" H 960 7460 50  0001 C CNN
	1    960  7460
	1    0    0    -1  
$EndComp
Wire Wire Line
	960  7460 960  7390
Wire Wire Line
	960  6680 960  6620
Text Notes 620  6230 0    50   ~ 0
Capacitors
$Comp
L power:VCC #PWR03
U 1 1 5DB1FACE
P 2830 1040
F 0 "#PWR03" H 2830 890 50  0001 C CNN
F 1 "VCC" H 2847 1213 50  0000 C CNN
F 2 "" H 2830 1040 50  0001 C CNN
F 3 "" H 2830 1040 50  0001 C CNN
	1    2830 1040
	1    0    0    -1  
$EndComp
$Comp
L power:GND #PWR04
U 1 1 5DB20451
P 2830 1340
F 0 "#PWR04" H 2830 1090 50  0001 C CNN
F 1 "GND" H 2835 1167 50  0000 C CNN
F 2 "" H 2830 1340 50  0001 C CNN
F 3 "" H 2830 1340 50  0001 C CNN
	1    2830 1340
	1    0    0    -1  
$EndComp
$Sheet
S 8610 2170 510  740 
U 5DA62A26
F0 "MPU6050" 50
F1 "MPU6050.sch" 50
F2 "SCL" I L 8610 2680 50 
F3 "SDA" I L 8610 2540 50 
F4 "INT" I L 8610 2420 50 
$EndSheet
Text Label 8510 2420 2    50   ~ 0
MPU_INT
Text Label 8490 2540 2    50   ~ 0
MPU_SDA
Text Label 8500 2680 2    50   ~ 0
MPU_SCL
Wire Wire Line
	8510 2420 8610 2420
Wire Wire Line
	8610 2540 8490 2540
Wire Wire Line
	8500 2680 8610 2680
Wire Wire Line
	8280 4200 8510 4200
$Comp
L Device:L L1
U 1 1 5DB0265B
P 1970 1040
F 0 "L1" V 1789 1040 50  0000 C CNN
F 1 "470uH" V 1880 1040 50  0000 C CNN
F 2 "Inductor_SMD:L_7.3x7.3_H4.5" H 1970 1040 50  0001 C CNN
F 3 "~" H 1970 1040 50  0001 C CNN
	1    1970 1040
	0    1    1    0   
$EndComp
Text Label 1490 1040 0    50   ~ 0
Vin
Wire Wire Line
	1340 1340 1660 1340
Connection ~ 1660 1340
Wire Wire Line
	1660 1040 1820 1040
Wire Wire Line
	1660 1040 1340 1040
Connection ~ 1660 1040
$Comp
L Device:D_Schottky D1
U 1 1 5DB0141D
P 1660 1190
F 0 "D1" V 1614 1269 50  0000 L CNN
F 1 "SS34" V 1705 1269 50  0000 L CNN
F 2 "Diode_SMD:D_SMA" H 1660 1190 50  0001 C CNN
F 3 "http://www.chinesechip.com/files/2015-06/8b5aa353-e559-4708-bf71-5dbd56a0a342.pdf" H 1660 1190 50  0001 C CNN
	1    1660 1190
	0    1    1    0   
$EndComp
NoConn ~ 8280 4200
$Comp
L Mechanical:MountingHole_Pad H4
U 1 1 5DB890E5
P 9700 5770
F 0 "H4" H 9800 5816 50  0000 L CNN
F 1 "MountingHole" H 9800 5725 50  0000 L CNN
F 2 "MountingHole:MountingHole_2.2mm_M2_Pad_Via" H 9700 5770 50  0001 C CNN
F 3 "~" H 9700 5770 50  0001 C CNN
	1    9700 5770
	1    0    0    -1  
$EndComp
$Comp
L Mechanical:MountingHole_Pad H3
U 1 1 5DB8A321
P 9700 6100
F 0 "H3" H 9800 6146 50  0000 L CNN
F 1 "MountingHole" H 9800 6055 50  0000 L CNN
F 2 "MountingHole:MountingHole_2.2mm_M2_Pad_Via" H 9700 6100 50  0001 C CNN
F 3 "~" H 9700 6100 50  0001 C CNN
	1    9700 6100
	1    0    0    -1  
$EndComp
$Comp
L Mechanical:MountingHole_Pad H2
U 1 1 5DB8C499
P 9000 6100
F 0 "H2" H 9100 6146 50  0000 L CNN
F 1 "MountingHole" H 9100 6055 50  0000 L CNN
F 2 "MountingHole:MountingHole_2.2mm_M2_Pad_Via" H 9000 6100 50  0001 C CNN
F 3 "~" H 9000 6100 50  0001 C CNN
	1    9000 6100
	1    0    0    -1  
$EndComp
$Comp
L Mechanical:MountingHole_Pad H1
U 1 1 5DB8E528
P 8980 5770
F 0 "H1" H 9080 5816 50  0000 L CNN
F 1 "MountingHole" H 9080 5725 50  0000 L CNN
F 2 "MountingHole:MountingHole_2.2mm_M2_Pad_Via" H 8980 5770 50  0001 C CNN
F 3 "~" H 8980 5770 50  0001 C CNN
	1    8980 5770
	1    0    0    -1  
$EndComp
Wire Notes Line
	8500 5250 11200 5250
Wire Notes Line
	8500 5250 8500 6530
Text Notes 8800 5490 0    50   ~ 0
Mounting Holes
Text Label 6380 4290 0    50   ~ 0
MPU_INT
Wire Wire Line
	6230 4290 6380 4290
Wire Wire Line
	6230 4390 6780 4390
Wire Wire Line
	6230 4090 6370 4090
Wire Wire Line
	6230 4190 6370 4190
Wire Wire Line
	6230 3690 6370 3690
Wire Notes Line
	470  1730 3290 1730
NoConn ~ 6370 4190
NoConn ~ 6370 3690
$Comp
L Device:R R10
U 1 1 5DB74F98
P 4810 3490
F 0 "R10" V 4720 3410 50  0000 C CNN
F 1 "10k" V 4720 3580 50  0000 C CNN
F 2 "Resistor_SMD:R_0603_1608Metric" V 4740 3490 50  0001 C CNN
F 3 "~" H 4810 3490 50  0001 C CNN
	1    4810 3490
	0    1    1    0   
$EndComp
Wire Wire Line
	5030 3490 4960 3490
Wire Wire Line
	4660 3490 4530 3490
Wire Wire Line
	4530 3490 4530 3690
$Comp
L Connector_Generic:Conn_01x03 J2
U 1 1 5DB8BBBF
P 1950 2350
F 0 "J2" H 2030 2392 50  0000 L CNN
F 1 "Conn_01x03" H 2030 2301 50  0000 L CNN
F 2 "Connector_PinHeader_1.27mm:PinHeader_1x03_P1.27mm_Vertical" H 1950 2350 50  0001 C CNN
F 3 "~" H 1950 2350 50  0001 C CNN
	1    1950 2350
	1    0    0    -1  
$EndComp
Text Label 6360 3590 0    50   ~ 0
RX
Text Label 1620 2250 2    50   ~ 0
RX
Text Label 1620 2350 2    50   ~ 0
TX
$Comp
L power:GND #PWR0101
U 1 1 5DB8CB30
P 1610 2450
F 0 "#PWR0101" H 1610 2200 50  0001 C CNN
F 1 "GND" H 1615 2277 50  0000 C CNN
F 2 "" H 1610 2450 50  0001 C CNN
F 3 "" H 1610 2450 50  0001 C CNN
	1    1610 2450
	1    0    0    -1  
$EndComp
Wire Wire Line
	1620 2250 1750 2250
Wire Wire Line
	1620 2350 1750 2350
Wire Wire Line
	1610 2450 1750 2450
Text Notes 1120 1980 0    50   ~ 0
Serial Interface
Wire Notes Line
	490  2800 3310 2800
$Comp
L power:GND #PWR0102
U 1 1 5DBA164B
P 8700 6280
F 0 "#PWR0102" H 8700 6030 50  0001 C CNN
F 1 "GND" H 8705 6107 50  0000 C CNN
F 2 "" H 8700 6280 50  0001 C CNN
F 3 "" H 8700 6280 50  0001 C CNN
	1    8700 6280
	1    0    0    -1  
$EndComp
Wire Wire Line
	8700 6280 9000 6280
Wire Wire Line
	9000 6280 9000 6200
Wire Wire Line
	9000 6280 9700 6280
Wire Wire Line
	9700 6280 9700 6200
Connection ~ 9000 6280
Wire Wire Line
	8980 5870 8700 5870
Wire Wire Line
	8700 5870 8700 6280
Connection ~ 8700 6280
Wire Wire Line
	9700 5870 8980 5870
Connection ~ 8980 5870
Text Label 6370 4090 0    50   ~ 0
LED_1
$Comp
L Device:LED D3
U 1 1 5DBC7D84
P 2130 3380
F 0 "D3" H 2123 3125 50  0000 C CNN
F 1 "LED" H 2123 3216 50  0000 C CNN
F 2 "LED_SMD:LED_0805_2012Metric" H 2130 3380 50  0001 C CNN
F 3 "~" H 2130 3380 50  0001 C CNN
	1    2130 3380
	-1   0    0    1   
$EndComp
Text Label 1380 3380 2    50   ~ 0
LED_1
$Comp
L Device:R R11
U 1 1 5DBCAEEF
P 1680 3380
F 0 "R11" V 1590 3300 50  0000 C CNN
F 1 "1k" V 1590 3470 50  0000 C CNN
F 2 "Resistor_SMD:R_0603_1608Metric" V 1610 3380 50  0001 C CNN
F 3 "~" H 1680 3380 50  0001 C CNN
	1    1680 3380
	0    1    1    0   
$EndComp
Wire Wire Line
	1980 3380 1830 3380
Wire Wire Line
	1530 3380 1380 3380
$Comp
L power:GND #PWR0103
U 1 1 5DBCDB37
P 2680 3480
F 0 "#PWR0103" H 2680 3230 50  0001 C CNN
F 1 "GND" H 2685 3307 50  0000 C CNN
F 2 "" H 2680 3480 50  0001 C CNN
F 3 "" H 2680 3480 50  0001 C CNN
	1    2680 3480
	1    0    0    -1  
$EndComp
Wire Wire Line
	2280 3380 2680 3380
Wire Wire Line
	2680 3380 2680 3480
Text Notes 780  3090 0    50   ~ 0
Status LED
Wire Notes Line
	470  3800 3310 3800
Wire Notes Line
	3310 480  3310 3800
$Comp
L Device:C C10
U 1 1 5DBDE9FF
P 1390 7240
F 0 "C10" H 1505 7286 50  0000 L CNN
F 1 "100nF" H 1505 7195 50  0000 L CNN
F 2 "Capacitor_SMD:C_0805_2012Metric" H 1428 7090 50  0001 C CNN
F 3 "~" H 1390 7240 50  0001 C CNN
	1    1390 7240
	1    0    0    -1  
$EndComp
$Comp
L Device:C C11
U 1 1 5DBF6A88
P 1880 7240
F 0 "C11" H 1995 7286 50  0000 L CNN
F 1 "100uF" H 1995 7195 50  0000 L CNN
F 2 "Capacitor_SMD:C_1206_3216Metric" H 1918 7090 50  0001 C CNN
F 3 "~" H 1880 7240 50  0001 C CNN
	1    1880 7240
	1    0    0    -1  
$EndComp
$Comp
L power:+3.3V #PWR05
U 1 1 5DA9F453
P 4530 3690
F 0 "#PWR05" H 4530 3540 50  0001 C CNN
F 1 "+3.3V" V 4545 3818 50  0000 L CNN
F 2 "" H 4530 3690 50  0001 C CNN
F 3 "" H 4530 3690 50  0001 C CNN
	1    4530 3690
	0    -1   -1   0   
$EndComp
Connection ~ 4530 3690
$Comp
L Device:C C12
U 1 1 5DC09A7A
P 2380 7240
F 0 "C12" H 2495 7286 50  0000 L CNN
F 1 "100uF" H 2495 7195 50  0000 L CNN
F 2 "Capacitor_SMD:C_1206_3216Metric" H 2418 7090 50  0001 C CNN
F 3 "~" H 2380 7240 50  0001 C CNN
	1    2380 7240
	1    0    0    -1  
$EndComp
$Comp
L Device:D_Schottky D4
U 1 1 5DB795C3
P 1150 1150
F 0 "D4" H 1050 1030 50  0000 L CNN
F 1 "SS34" H 1180 1030 50  0000 L CNN
F 2 "Diode_SMD:D_SMA" H 1150 1150 50  0001 C CNN
F 3 "http://www.chinesechip.com/files/2015-06/8b5aa353-e559-4708-bf71-5dbd56a0a342.pdf" H 1150 1150 50  0001 C CNN
	1    1150 1150
	-1   0    0    1   
$EndComp
Wire Wire Line
	950  1150 1000 1150
Wire Wire Line
	950  1250 1340 1250
Wire Wire Line
	1300 1150 1340 1150
$Comp
L Device:Polyfuse_Small F1
U 1 1 5DB84C75
P 9710 4090
F 0 "F1" V 9505 4090 50  0000 C CNN
F 1 "Polyfuse_Small" V 9596 4090 50  0000 C CNN
F 2 "Fuse:Fuse_1206_3216Metric" H 9760 3890 50  0001 L CNN
F 3 "~" H 9710 4090 50  0001 C CNN
	1    9710 4090
	0    1    1    0   
$EndComp
Wire Wire Line
	9280 4090 9610 4090
Wire Wire Line
	9810 4090 10100 4090
Wire Wire Line
	10500 4090 10500 4000
$Comp
L Device:C C13
U 1 1 5DB91792
P 2820 7240
F 0 "C13" H 2935 7286 50  0000 L CNN
F 1 "100nF" H 2935 7195 50  0000 L CNN
F 2 "Capacitor_SMD:C_0805_2012Metric" H 2858 7090 50  0001 C CNN
F 3 "~" H 2820 7240 50  0001 C CNN
	1    2820 7240
	1    0    0    -1  
$EndComp
Wire Notes Line
	470  6020 3270 6020
$Comp
L Connector_Generic:Conn_01x02 J1
U 1 1 5DB0AD54
P 750 1250
F 0 "J1" H 750 1020 50  0000 C CNN
F 1 "Conn_01x02" H 750 1360 50  0000 C CNN
F 2 "Connector_JST:JST_PH_B2B-PH-K_1x02_P2.00mm_Vertical" H 750 1250 50  0001 C CNN
F 3 "~" H 750 1250 50  0001 C CNN
	1    750  1250
	-1   0    0    1   
$EndComp
Wire Notes Line
	3280 6020 3280 7790
Wire Wire Line
	960  7390 1390 7390
Connection ~ 960  7390
Connection ~ 1390 7390
Wire Wire Line
	1390 7390 1880 7390
Connection ~ 1880 7390
Wire Wire Line
	1880 7390 2380 7390
Connection ~ 2380 7390
Wire Wire Line
	2380 7390 2820 7390
Wire Wire Line
	960  6680 1390 6680
$Comp
L Device:R R12
U 1 1 5DB9A10B
P 960 6880
F 0 "R12" V 870 6800 50  0000 C CNN
F 1 "0" V 870 6970 50  0000 C CNN
F 2 "Resistor_SMD:R_0603_1608Metric" V 890 6880 50  0001 C CNN
F 3 "~" H 960 6880 50  0001 C CNN
	1    960  6880
	-1   0    0    1   
$EndComp
Wire Wire Line
	960  7090 960  7030
Wire Wire Line
	960  6730 960  6680
Wire Wire Line
	960  6680 970  6680
Connection ~ 960  6680
Wire Wire Line
	1390 7090 1390 6680
Connection ~ 1390 6680
Wire Wire Line
	1390 6680 1880 6680
Wire Wire Line
	1880 7090 1880 6680
Connection ~ 1880 6680
Wire Wire Line
	1880 6680 2380 6680
Wire Wire Line
	2380 7090 2380 6680
Connection ~ 2380 6680
Wire Wire Line
	2380 6680 2820 6680
Wire Wire Line
	2820 7090 2820 6680
$Comp
L Device:D_TVS D5
U 1 1 5DBAF289
P 2830 1190
F 0 "D5" V 2784 1269 50  0000 L CNN
F 1 "SMAJ24CA" V 2875 1269 50  0000 L CNN
F 2 "Diode_SMD:D_SMA" H 2830 1190 50  0001 C CNN
F 3 "https://www.mouser.de/datasheet/2/240/Littelfuse_TVS_Diode_SMAJ_Datasheet.pdf-540740.pdf" H 2830 1190 50  0001 C CNN
	1    2830 1190
	0    1    1    0   
$EndComp
Connection ~ 2830 1040
Connection ~ 2830 1340
$Comp
L Device:D_Schottky D6
U 1 1 5DBDDD28
P 10250 4090
F 0 "D6" H 10110 4200 50  0000 L CNN
F 1 "SS34" H 10260 4200 50  0000 L CNN
F 2 "Diode_SMD:D_SMA" H 10250 4090 50  0001 C CNN
F 3 "http://www.chinesechip.com/files/2015-06/8b5aa353-e559-4708-bf71-5dbd56a0a342.pdf" H 10250 4090 50  0001 C CNN
	1    10250 4090
	-1   0    0    1   
$EndComp
Wire Wire Line
	10500 4090 10400 4090
Wire Wire Line
	2250 1040 2120 1040
Connection ~ 2250 1040
Wire Wire Line
	2250 1040 2830 1040
$Comp
L power:+3.3V #PWR010
U 1 1 5DAEFF88
P 10500 4000
F 0 "#PWR010" H 10500 3850 50  0001 C CNN
F 1 "+3.3V" H 10515 4173 50  0000 C CNN
F 2 "" H 10500 4000 50  0001 C CNN
F 3 "" H 10500 4000 50  0001 C CNN
	1    10500 4000
	1    0    0    -1  
$EndComp
$Comp
L Device:CP C2
U 1 1 5DB1EC3E
P 2250 1190
AR Path="/5DB1EC3E" Ref="C2"  Part="1" 
AR Path="/5DA7086F/5DB1EC3E" Ref="C?"  Part="1" 
F 0 "C2" H 2428 1236 50  0000 L CNN
F 1 "1000uF" H 2428 1145 50  0000 L CNN
F 2 "Capacitor_SMD:CP_Elec_10x10.5" H 2250 1190 50  0001 C CNN
F 3 "~" H 2250 1190 50  0001 C CNN
	1    2250 1190
	1    0    0    -1  
$EndComp
$Comp
L Connector_Generic:Conn_01x01 J3
U 1 1 5DC1559A
P 2250 770
F 0 "J3" V 2214 682 50  0000 R CNN
F 1 "Conn_01x01" V 2123 682 50  0000 R CNN
F 2 "Connector_PinHeader_2.00mm:PinHeader_1x01_P2.00mm_Vertical" H 2250 770 50  0001 C CNN
F 3 "~" H 2250 770 50  0001 C CNN
	1    2250 770 
	0    -1   -1   0   
$EndComp
$Comp
L Connector_Generic:Conn_01x01 J4
U 1 1 5DC16007
P 2250 1610
F 0 "J4" V 2122 1690 50  0000 L CNN
F 1 "Conn_01x01" V 2213 1690 50  0000 L CNN
F 2 "Connector_PinHeader_2.00mm:PinHeader_1x01_P2.00mm_Vertical" H 2250 1610 50  0001 C CNN
F 3 "~" H 2250 1610 50  0001 C CNN
	1    2250 1610
	0    1    1    0   
$EndComp
Wire Wire Line
	2250 970  2250 1040
Wire Wire Line
	2250 1040 2260 1040
Wire Wire Line
	1660 1340 2250 1340
Wire Wire Line
	2250 1340 2250 1410
Connection ~ 2250 1340
Wire Wire Line
	2250 1340 2830 1340
$Comp
L Device:CP C1
U 1 1 5DB0C839
P 960 7240
F 0 "C1" H 1075 7286 50  0000 L CNN
F 1 "1F" H 1075 7195 50  0000 L CNN
F 2 "Capacitor_THT:CP_Radial_D8.0mm_P3.50mm" H 1350 6750 50  0001 C CNN
F 3 "https://produktinfo.conrad.com/datenblaetter/1500000-1599999/001529294-da-01-en-SUPERKONDENSATOR_3_3F_3V_8X20MM.pdf" H 960 7240 50  0001 C CNN
	1    960  7240
	1    0    0    -1  
$EndComp
$EndSCHEMATC
